[gd_resource type="Resource" load_steps=3 format=3 uid="uid://de0xj0ao4caqh"]

[ext_resource type="Script" path="res://journal/quest.gd" id="1_7xr54"]
[ext_resource type="Texture2D" uid="uid://b81ufl5yrxist" path="res://dialog/avatar/traderbob.png" id="2_pkmcb"]

[resource]
script = ExtResource("1_7xr54")
name = "Tutorial"
texture = ExtResource("2_pkmcb")
step = null
description = "Make stoneaxe"
item_name = ""
item_quantity = null
reward_name = ""
reward_quantity = null
