[gd_scene load_steps=3 format=3 uid="uid://t6ongd6g25uy"]

[ext_resource type="ArrayMesh" uid="uid://dfo0thrtonkx1" path="res://inventory/lockpick.mesh" id="1_kd10w"]

[sub_resource type="BoxShape3D" id="BoxShape3D_ftwji"]
size = Vector3(0.18951, 0.159105, 0.403986)

[node name="blank_item" type="StaticBody3D" groups=["item"]]

[node name="CollisionShape3D" type="CollisionShape3D" parent="."]
transform = Transform3D(1, 0, 0, 0, 1, 0, 0, 0, 1, 0, 0, -0.0270179)
shape = SubResource("BoxShape3D_ftwji")

[node name="MeshInstance3D" type="MeshInstance3D" parent="."]
mesh = ExtResource("1_kd10w")
