[gd_scene load_steps=3 format=3 uid="uid://c8x45a7jkg563"]

[ext_resource type="PackedScene" uid="uid://w62c4g8rkg1f" path="res://inventory/coin.glb" id="1_a46yh"]

[sub_resource type="BoxShape3D" id="BoxShape3D_1mtrg"]
size = Vector3(1.89185, 0.321614, 1.87293)

[node name="coin" instance=ExtResource("1_a46yh")]
transform = Transform3D(0.05, 0, 0, 0, 0.05, 0, 0, 0, 0.05, 0, 0, 0)

[node name="coin" type="StaticBody3D" parent="." index="1" groups=["item"]]

[node name="CollisionShape3D" type="CollisionShape3D" parent="coin" index="0"]
transform = Transform3D(1, 0, 0, 0, 1, 0, 0, 0, 1, 0, 0.170266, 0)
shape = SubResource("BoxShape3D_1mtrg")
