[gd_scene load_steps=4 format=3 uid="uid://7troryuu8dr0"]

[ext_resource type="PackedScene" uid="uid://52y2lhxbrfc5" path="res://entities/watercollecter/water_collector.glb" id="1_ek7g8"]
[ext_resource type="Script" path="res://entities/watercollecter/watercollector.gd" id="2_vtc1e"]

[sub_resource type="BoxShape3D" id="BoxShape3D_5s12c"]
size = Vector3(0.558059, 0.780217, 0.41056)

[node name="watercollector" instance=ExtResource("1_ek7g8")]
transform = Transform3D(0.7, 0, 0, 0, 0.7, 0, 0, 0, 0.7, 0, 0, 0)
script = ExtResource("2_vtc1e")

[node name="watercollector" type="StaticBody3D" parent="." index="2" groups=["player_storage"]]
transform = Transform3D(1, 0, 0, 0, 1, 0, 0, 0, 1, 0, 1.22305, 0.791384)

[node name="CollisionShape3D" type="CollisionShape3D" parent="watercollector" index="0"]
transform = Transform3D(1, 0, 0, 0, 1, 0, 0, 0, 1, 0, 0.358017, 0.131925)
shape = SubResource("BoxShape3D_5s12c")

[node name="water " parent="." index="3"]
collision_layer = 2
