[gd_scene load_steps=4 format=3 uid="uid://pov1uhyciyhh"]

[ext_resource type="Script" path="res://entities/chicken/chicken.gd" id="1_jogkd"]
[ext_resource type="PackedScene" uid="uid://cg7gl2pl81rah" path="res://entities/chicken/chicken.glb" id="1_ret4r"]

[sub_resource type="BoxShape3D" id="BoxShape3D_nxv7o"]
size = Vector3(1, 1.25577, 1)

[node name="chicken" type="StaticBody3D"]
script = ExtResource("1_jogkd")

[node name="CollisionShape3D" type="CollisionShape3D" parent="."]
transform = Transform3D(0.5, 0, 0, 0, 0.5, 0, 0, 0, 0.5, 0, 0.313423, 0)
shape = SubResource("BoxShape3D_nxv7o")

[node name="chicken" parent="." instance=ExtResource("1_ret4r")]
transform = Transform3D(0.05, 0, 0, 0, 0.05, 0, 0, 0, 0.05, 0.0316806, 0.0121848, -0.0106321)
