[gd_scene load_steps=4 format=3 uid="uid://b31inbbiegxih"]

[ext_resource type="PackedScene" uid="uid://hrfraingx6gw" path="res://entities/chickencoop/chickencoop.glb" id="1_ohrg7"]
[ext_resource type="Script" path="res://entities/chickencoop/chickencoop.gd" id="2_6pk00"]

[sub_resource type="BoxShape3D" id="BoxShape3D_m1glj"]
size = Vector3(0.698166, 1, 0.0767626)

[node name="chickencoop" instance=ExtResource("1_ohrg7")]
script = ExtResource("2_6pk00")

[node name="coop" type="StaticBody3D" parent="." index="3" groups=["player_storage"]]
transform = Transform3D(1, 0, 0, 0, 1, 0, 0, 0, 1, -2, 0, 2)

[node name="CollisionShape3D" type="CollisionShape3D" parent="coop" index="0"]
transform = Transform3D(1, 0, 0, 0, 1, 0, 0, 0, 1, -0.23703, 1.15021, -0.896489)
shape = SubResource("BoxShape3D_m1glj")
