[gd_scene load_steps=6 format=3 uid="uid://c8bvdxme3h1fq"]

[ext_resource type="Script" path="res://player/building/wall.gd" id="1_3yeg6"]

[sub_resource type="StandardMaterial3D" id="StandardMaterial3D_6btc6"]
resource_name = "Material"
cull_mode = 2
vertex_color_use_as_albedo = true
albedo_color = Color(0.373759, 0.415613, 0.541176, 1)
roughness = 0.4

[sub_resource type="ArrayMesh" id="ArrayMesh_6r40v"]
_surfaces = [{
"aabb": AABB(-0.5, 0, -0.5, 0.20001, 1.00001, 1),
"format": 4097,
"index_count": 36,
"index_data": PackedByteArray(0, 0, 6, 0, 4, 0, 0, 0, 2, 0, 6, 0, 7, 0, 4, 0, 6, 0, 7, 0, 5, 0, 4, 0, 5, 0, 3, 0, 1, 0, 5, 0, 7, 0, 3, 0, 1, 0, 2, 0, 0, 0, 1, 0, 3, 0, 2, 0, 5, 0, 0, 0, 4, 0, 5, 0, 1, 0, 0, 0, 3, 0, 6, 0, 2, 0, 3, 0, 7, 0, 6, 0),
"name": "Material",
"primitive": 3,
"vertex_count": 8,
"vertex_data": PackedByteArray(154, 153, 153, 190, 0, 0, 128, 63, 0, 0, 0, 191, 154, 153, 153, 190, 0, 0, 0, 0, 0, 0, 0, 191, 153, 153, 153, 190, 0, 0, 128, 63, 0, 0, 0, 63, 153, 153, 153, 190, 0, 0, 0, 0, 0, 0, 0, 63, 0, 0, 0, 191, 0, 0, 128, 63, 0, 0, 0, 191, 0, 0, 0, 191, 0, 0, 0, 0, 0, 0, 0, 191, 0, 0, 0, 191, 0, 0, 128, 63, 0, 0, 0, 63, 0, 0, 0, 191, 0, 0, 0, 0, 0, 0, 0, 63)
}]
blend_shape_mode = 0

[sub_resource type="ArrayMesh" id="ArrayMesh_tcr3c"]
resource_name = "wall_Cube444"
_surfaces = [{
"aabb": AABB(-0.5, 0, -0.5, 0.20001, 1.00001, 1),
"attribute_data": PackedByteArray(0, 0, 32, 63, 0, 0, 0, 63, 0, 0, 32, 63, 0, 0, 0, 63, 0, 0, 32, 63, 0, 0, 0, 63, 0, 0, 192, 62, 0, 0, 0, 63, 0, 0, 192, 62, 0, 0, 0, 63, 0, 0, 192, 62, 0, 0, 0, 63, 0, 0, 0, 0, 0, 0, 128, 63, 0, 0, 32, 63, 0, 0, 128, 62, 0, 0, 32, 63, 0, 0, 128, 62, 0, 0, 192, 62, 0, 0, 128, 62, 0, 0, 0, 0, 0, 0, 128, 63, 0, 0, 192, 62, 0, 0, 128, 62, 0, 0, 32, 63, 0, 0, 64, 63, 0, 0, 32, 63, 0, 0, 64, 63, 0, 0, 96, 63, 0, 0, 0, 63, 0, 0, 192, 62, 0, 0, 64, 63, 0, 0, 0, 62, 0, 0, 0, 63, 0, 0, 192, 62, 0, 0, 64, 63, 0, 0, 32, 63, 0, 0, 128, 63, 0, 0, 0, 0, 0, 0, 128, 63, 0, 0, 96, 63, 0, 0, 128, 62, 0, 0, 192, 62, 0, 0, 128, 63, 0, 0, 0, 62, 0, 0, 128, 62, 0, 0, 0, 0, 0, 0, 128, 63),
"format": 4119,
"index_count": 36,
"index_data": PackedByteArray(1, 0, 20, 0, 14, 0, 1, 0, 7, 0, 20, 0, 21, 0, 12, 0, 18, 0, 21, 0, 15, 0, 12, 0, 16, 0, 9, 0, 3, 0, 16, 0, 22, 0, 9, 0, 5, 0, 8, 0, 2, 0, 5, 0, 11, 0, 8, 0, 17, 0, 0, 0, 13, 0, 17, 0, 4, 0, 0, 0, 10, 0, 19, 0, 6, 0, 10, 0, 23, 0, 19, 0),
"material": SubResource("StandardMaterial3D_6btc6"),
"name": "Material",
"primitive": 3,
"vertex_count": 24,
"vertex_data": PackedByteArray(154, 153, 153, 190, 0, 0, 128, 63, 0, 0, 0, 191, 255, 255, 255, 255, 255, 127, 255, 255, 154, 153, 153, 190, 0, 0, 128, 63, 0, 0, 0, 191, 255, 127, 255, 255, 0, 0, 255, 191, 154, 153, 153, 190, 0, 0, 128, 63, 0, 0, 0, 191, 255, 255, 255, 127, 255, 127, 255, 255, 154, 153, 153, 190, 0, 0, 0, 0, 0, 0, 0, 191, 255, 127, 0, 0, 255, 255, 255, 191, 154, 153, 153, 190, 0, 0, 0, 0, 0, 0, 0, 191, 255, 255, 255, 255, 255, 127, 255, 255, 154, 153, 153, 190, 0, 0, 0, 0, 0, 0, 0, 191, 255, 255, 255, 127, 255, 127, 255, 255, 153, 153, 153, 190, 0, 0, 128, 63, 0, 0, 0, 63, 255, 127, 255, 127, 255, 255, 255, 63, 153, 153, 153, 190, 0, 0, 128, 63, 0, 0, 0, 63, 255, 127, 255, 255, 0, 0, 255, 191, 153, 153, 153, 190, 0, 0, 128, 63, 0, 0, 0, 63, 255, 255, 255, 127, 255, 127, 255, 255, 153, 153, 153, 190, 0, 0, 0, 0, 0, 0, 0, 63, 255, 127, 0, 0, 255, 255, 255, 191, 153, 153, 153, 190, 0, 0, 0, 0, 0, 0, 0, 63, 255, 127, 255, 127, 255, 255, 255, 63, 153, 153, 153, 190, 0, 0, 0, 0, 0, 0, 0, 63, 255, 255, 255, 127, 255, 127, 255, 255, 0, 0, 0, 191, 0, 0, 128, 63, 0, 0, 0, 191, 0, 0, 255, 127, 255, 127, 255, 255, 0, 0, 0, 191, 0, 0, 128, 63, 0, 0, 0, 191, 255, 255, 255, 255, 255, 127, 255, 255, 0, 0, 0, 191, 0, 0, 128, 63, 0, 0, 0, 191, 255, 127, 255, 255, 0, 0, 255, 191, 0, 0, 0, 191, 0, 0, 0, 0, 0, 0, 0, 191, 0, 0, 255, 127, 255, 127, 255, 255, 0, 0, 0, 191, 0, 0, 0, 0, 0, 0, 0, 191, 255, 127, 0, 0, 255, 255, 255, 191, 0, 0, 0, 191, 0, 0, 0, 0, 0, 0, 0, 191, 255, 255, 255, 255, 255, 127, 255, 255, 0, 0, 0, 191, 0, 0, 128, 63, 0, 0, 0, 63, 0, 0, 255, 127, 255, 127, 255, 255, 0, 0, 0, 191, 0, 0, 128, 63, 0, 0, 0, 63, 255, 127, 255, 127, 255, 255, 255, 63, 0, 0, 0, 191, 0, 0, 128, 63, 0, 0, 0, 63, 255, 127, 255, 255, 0, 0, 255, 191, 0, 0, 0, 191, 0, 0, 0, 0, 0, 0, 0, 63, 0, 0, 255, 127, 255, 127, 255, 255, 0, 0, 0, 191, 0, 0, 0, 0, 0, 0, 0, 63, 255, 127, 0, 0, 255, 255, 255, 191, 0, 0, 0, 191, 0, 0, 0, 0, 0, 0, 0, 63, 255, 127, 255, 127, 255, 255, 255, 63)
}]
blend_shape_mode = 0
shadow_mesh = SubResource("ArrayMesh_6r40v")

[sub_resource type="ConcavePolygonShape3D" id="ConcavePolygonShape3D_j0eiv"]
data = PackedVector3Array(-0.3, 1, -0.5, -0.5, 1, 0.5, -0.5, 1, -0.5, -0.3, 1, -0.5, -0.3, 1, 0.5, -0.5, 1, 0.5, -0.5, 0, 0.5, -0.5, 1, -0.5, -0.5, 1, 0.5, -0.5, 0, 0.5, -0.5, 0, -0.5, -0.5, 1, -0.5, -0.5, 0, -0.5, -0.3, 0, 0.5, -0.3, 0, -0.5, -0.5, 0, -0.5, -0.5, 0, 0.5, -0.3, 0, 0.5, -0.3, 0, -0.5, -0.3, 1, 0.5, -0.3, 1, -0.5, -0.3, 0, -0.5, -0.3, 0, 0.5, -0.3, 1, 0.5, -0.5, 0, -0.5, -0.3, 1, -0.5, -0.5, 1, -0.5, -0.5, 0, -0.5, -0.3, 0, -0.5, -0.3, 1, -0.5, -0.3, 0, 0.5, -0.5, 1, 0.5, -0.3, 1, 0.5, -0.3, 0, 0.5, -0.5, 0, 0.5, -0.5, 1, 0.5)

[node name="Wall" type="StaticBody3D" groups=["pickup"]]
script = ExtResource("1_3yeg6")

[node name="MeshInstance3D" type="MeshInstance3D" parent="."]
mesh = SubResource("ArrayMesh_tcr3c")

[node name="CollisionShape3D" type="CollisionShape3D" parent="."]
shape = SubResource("ConcavePolygonShape3D_j0eiv")
