[gd_scene load_steps=8 format=3 uid="uid://cxti8e8xbm27g"]

[ext_resource type="Texture2D" uid="uid://cvkkdeedfgv3m" path="res://entities/kitchen/stove_stove_c.png" id="1_nr67l"]
[ext_resource type="Script" path="res://entities/kitchen/stove.gd" id="2_1vvai"]
[ext_resource type="Texture2D" uid="uid://cvdyuffwvs20c" path="res://entities/kitchen/stove_stove_n.png" id="3_87in5"]

[sub_resource type="StandardMaterial3D" id="StandardMaterial3D_sujxt"]
resource_name = "Material"
cull_mode = 2
vertex_color_use_as_albedo = true
albedo_texture = ExtResource("1_nr67l")
roughness = 0.745455
normal_enabled = true
normal_texture = ExtResource("3_87in5")

[sub_resource type="ArrayMesh" id="ArrayMesh_6i3nx"]
_surfaces = [{
"aabb": AABB(-0.5, 0, -0.5, 1.00001, 1.00001, 0.9),
"format": 4097,
"index_count": 30,
"index_data": PackedByteArray(0, 0, 6, 0, 4, 0, 0, 0, 2, 0, 6, 0, 3, 0, 6, 0, 2, 0, 3, 0, 7, 0, 6, 0, 7, 0, 4, 0, 6, 0, 7, 0, 5, 0, 4, 0, 1, 0, 2, 0, 0, 0, 1, 0, 3, 0, 2, 0, 5, 0, 0, 0, 4, 0, 5, 0, 1, 0, 0, 0),
"name": "Material",
"primitive": 3,
"vertex_count": 8,
"vertex_data": PackedByteArray(0, 0, 0, 63, 0, 0, 128, 63, 0, 0, 0, 191, 0, 0, 0, 63, 0, 0, 0, 0, 0, 0, 0, 191, 0, 0, 0, 63, 0, 0, 128, 63, 205, 204, 204, 62, 0, 0, 0, 63, 0, 0, 0, 0, 205, 204, 204, 62, 0, 0, 0, 191, 0, 0, 128, 63, 0, 0, 0, 191, 0, 0, 0, 191, 0, 0, 0, 0, 0, 0, 0, 191, 0, 0, 0, 191, 0, 0, 128, 63, 205, 204, 204, 62, 0, 0, 0, 191, 0, 0, 0, 0, 205, 204, 204, 62)
}]
blend_shape_mode = 0

[sub_resource type="ArrayMesh" id="ArrayMesh_7lqho"]
resource_name = "stove_Cube"
_surfaces = [{
"aabb": AABB(-0.5, 0, -0.5, 1.00001, 1.00001, 0.9),
"attribute_data": PackedByteArray(32, 72, 244, 60, 60, 171, 94, 63, 240, 55, 20, 62, 180, 22, 69, 63, 178, 173, 81, 63, 179, 45, 64, 63, 248, 125, 46, 62, 60, 171, 94, 63, 248, 252, 112, 63, 179, 45, 64, 63, 114, 249, 127, 63, 0, 0, 210, 56, 240, 55, 20, 62, 150, 158, 168, 62, 178, 173, 81, 63, 248, 124, 95, 63, 112, 249, 127, 63, 113, 249, 127, 63, 248, 252, 112, 63, 248, 124, 95, 63, 60, 174, 176, 60, 29, 176, 58, 63, 32, 72, 244, 60, 0, 174, 58, 63, 185, 57, 93, 63, 181, 22, 69, 63, 88, 174, 176, 60, 142, 250, 96, 63, 248, 125, 46, 62, 0, 174, 58, 63, 142, 63, 47, 62, 29, 176, 58, 63, 0, 128, 209, 56, 0, 224, 209, 56, 185, 57, 93, 63, 148, 158, 168, 62, 144, 63, 47, 62, 142, 250, 96, 63, 0, 0, 210, 56, 112, 249, 127, 63),
"format": 4119,
"index_count": 30,
"index_data": PackedByteArray(1, 0, 17, 0, 12, 0, 1, 0, 6, 0, 17, 0, 8, 0, 16, 0, 5, 0, 8, 0, 19, 0, 16, 0, 18, 0, 10, 0, 15, 0, 18, 0, 13, 0, 10, 0, 4, 0, 7, 0, 2, 0, 4, 0, 9, 0, 7, 0, 14, 0, 0, 0, 11, 0, 14, 0, 3, 0, 0, 0),
"material": SubResource("StandardMaterial3D_sujxt"),
"name": "Material",
"primitive": 3,
"vertex_count": 20,
"vertex_data": PackedByteArray(0, 0, 0, 63, 0, 0, 128, 63, 0, 0, 0, 191, 255, 255, 255, 255, 255, 127, 255, 127, 0, 0, 0, 63, 0, 0, 128, 63, 0, 0, 0, 191, 255, 127, 255, 255, 0, 0, 255, 191, 0, 0, 0, 63, 0, 0, 128, 63, 0, 0, 0, 191, 255, 255, 255, 127, 255, 127, 255, 127, 0, 0, 0, 63, 0, 0, 0, 0, 0, 0, 0, 191, 255, 255, 255, 255, 255, 127, 255, 127, 0, 0, 0, 63, 0, 0, 0, 0, 0, 0, 0, 191, 255, 255, 255, 127, 255, 127, 255, 127, 0, 0, 0, 63, 0, 0, 128, 63, 205, 204, 204, 62, 255, 127, 255, 127, 254, 255, 255, 191, 0, 0, 0, 63, 0, 0, 128, 63, 205, 204, 204, 62, 255, 127, 255, 255, 0, 0, 255, 191, 0, 0, 0, 63, 0, 0, 128, 63, 205, 204, 204, 62, 255, 255, 255, 127, 255, 127, 255, 127, 0, 0, 0, 63, 0, 0, 0, 0, 205, 204, 204, 62, 255, 127, 255, 127, 254, 255, 255, 191, 0, 0, 0, 63, 0, 0, 0, 0, 205, 204, 204, 62, 255, 255, 255, 127, 255, 127, 255, 127, 0, 0, 0, 191, 0, 0, 128, 63, 0, 0, 0, 191, 0, 0, 255, 127, 255, 127, 255, 191, 0, 0, 0, 191, 0, 0, 128, 63, 0, 0, 0, 191, 255, 255, 255, 255, 255, 127, 255, 127, 0, 0, 0, 191, 0, 0, 128, 63, 0, 0, 0, 191, 255, 127, 255, 255, 0, 0, 255, 191, 0, 0, 0, 191, 0, 0, 0, 0, 0, 0, 0, 191, 0, 0, 255, 127, 255, 127, 255, 191, 0, 0, 0, 191, 0, 0, 0, 0, 0, 0, 0, 191, 255, 255, 255, 255, 255, 127, 255, 127, 0, 0, 0, 191, 0, 0, 128, 63, 205, 204, 204, 62, 0, 0, 255, 127, 255, 127, 255, 191, 0, 0, 0, 191, 0, 0, 128, 63, 205, 204, 204, 62, 255, 127, 255, 127, 254, 255, 255, 191, 0, 0, 0, 191, 0, 0, 128, 63, 205, 204, 204, 62, 255, 127, 255, 255, 0, 0, 255, 191, 0, 0, 0, 191, 0, 0, 0, 0, 205, 204, 204, 62, 0, 0, 255, 127, 255, 127, 255, 191, 0, 0, 0, 191, 0, 0, 0, 0, 205, 204, 204, 62, 255, 127, 255, 127, 254, 255, 255, 191)
}]
blend_shape_mode = 0
shadow_mesh = SubResource("ArrayMesh_6i3nx")

[sub_resource type="BoxShape3D" id="BoxShape3D_caww4"]
size = Vector3(0.971065, 1.02101, 1)

[node name="stove" type="Node3D"]
transform = Transform3D(-4.37114e-08, 0, 1, 0, 1, 0, -1, 0, -4.37114e-08, 0, 0, 0)
script = ExtResource("2_1vvai")

[node name="Cube" type="MeshInstance3D" parent="."]
mesh = SubResource("ArrayMesh_7lqho")
skeleton = NodePath("")

[node name="kitchen" type="StaticBody3D" parent="." groups=["player_storage"]]

[node name="CollisionShape3D" type="CollisionShape3D" parent="kitchen"]
transform = Transform3D(1, 0, 0, 0, 1, 0, 0, 0, 1, 0, 0.517407, 0)
shape = SubResource("BoxShape3D_caww4")
