[gd_resource type="Resource" load_steps=3 format=3 uid="uid://bki0xr46k7g5t"]

[ext_resource type="Script" path="res://inventory/item.gd" id="1_tpvey"]
[ext_resource type="Texture2D" uid="uid://da675kvo168xu" path="res://inventory/items/club.png" id="2_hsfwn"]

[resource]
script = ExtResource("1_tpvey")
name = "club"
texture = ExtResource("2_hsfwn")
amount = 0
stackable = true
max_stack_size = 99
weight = 2
value = 15
type = 3
healing = null
description = "Your first weapon"
