[gd_resource type="Resource" load_steps=3 format=3 uid="uid://7gdvxnvr7q3p"]

[ext_resource type="Script" path="res://inventory/item.gd" id="1_dfh35"]
[ext_resource type="Texture2D" uid="uid://cpiwxppnniogt" path="res://inventory/items/fiber.png" id="2_hnvnr"]

[resource]
script = ExtResource("1_dfh35")
name = "fiber"
texture = ExtResource("2_hnvnr")
amount = 0
stackable = true
max_stack_size = 99
weight = 1
value = 1
type = 0
healing = null
description = "Plant fiber for basic bindings"
