[gd_resource type="Resource" load_steps=3 format=3 uid="uid://khyx04awmpiw"]

[ext_resource type="Script" path="res://inventory/item.gd" id="1_sckdm"]
[ext_resource type="Texture2D" uid="uid://cvrv7gwchd8n2" path="res://inventory/items/lockpick.png" id="2_tqsrl"]

[resource]
script = ExtResource("1_sckdm")
name = "lockpick"
texture = ExtResource("2_tqsrl")
amount = 0
stackable = true
max_stack_size = 99
weight = null
value = 99
type = 0
healing = null
description = "For picking locks"
