[gd_resource type="Resource" load_steps=3 format=3 uid="uid://fi4a0rlkl1q4"]

[ext_resource type="Script" path="res://inventory/item.gd" id="1_b7epk"]
[ext_resource type="Texture2D" uid="uid://crsbdxcoknn83" path="res://inventory/items/note.png" id="2_thp20"]

[resource]
script = ExtResource("1_b7epk")
name = "note"
texture = ExtResource("2_thp20")
amount = 0
stackable = true
max_stack_size = 99
weight = null
value = null
type = 0
healing = null
description = "A stained handwritten note"
