[gd_resource type="Resource" load_steps=3 format=3 uid="uid://jyd8alkg3ckp"]

[ext_resource type="Script" path="res://inventory/item.gd" id="1_uoqxb"]
[ext_resource type="Texture2D" uid="uid://dq84ptlyp8pwk" path="res://inventory/items/stoneaxe.png" id="2_an7kw"]

[resource]
script = ExtResource("1_uoqxb")
name = "stoneaxe"
texture = ExtResource("2_an7kw")
amount = 0
stackable = true
max_stack_size = 99
weight = 2
value = 30
type = 3
healing = null
description = "For chopping wood"
